<?xml version="1.0" encoding="UTF-8" standalone="no"?>
<!-- Created with Inkscape (http://www.inkscape.org/) -->

<svg
   width="124"
   height="48"
   viewBox="0 0 32.808332 12.7"
   version="1.1"
   id="svg5"
   xml:space="preserve"
   sodipodi:docname="hellicopter.svg"
   inkscape:version="1.2 (dc2aedaf03, 2022-05-15)"
   xmlns:inkscape="http://www.inkscape.org/namespaces/inkscape"
   xmlns:sodipodi="http://sodipodi.sourceforge.net/DTD/sodipodi-0.dtd"
   xmlns:xlink="http://www.w3.org/1999/xlink"
   xmlns="http://www.w3.org/2000/svg"
   xmlns:svg="http://www.w3.org/2000/svg"><sodipodi:namedview
     id="namedview7"
     pagecolor="#505050"
     bordercolor="#eeeeee"
     borderopacity="1"
     inkscape:showpageshadow="0"
     inkscape:pageopacity="0"
     inkscape:pagecheckerboard="0"
     inkscape:deskcolor="#505050"
     inkscape:document-units="mm"
     showgrid="true"
     inkscape:zoom="7.5600572"
     inkscape:cx="61.242923"
     inkscape:cy="27.380745"
     inkscape:window-width="1672"
     inkscape:window-height="911"
     inkscape:window-x="0"
     inkscape:window-y="0"
     inkscape:window-maximized="1"
     inkscape:current-layer="layer1"><inkscape:grid
       type="xygrid"
       id="grid284"
       spacingx="0.52916666"
       spacingy="0.52916666"
       empspacing="4"
       originx="0"
       originy="0" /></sodipodi:namedview><defs
     id="defs2"><linearGradient
       inkscape:collect="always"
       id="linearGradient29824"><stop
         style="stop-color:#a88474;stop-opacity:1;"
         offset="0"
         id="stop29820" /><stop
         style="stop-color:#684438;stop-opacity:0.5;"
         offset="1"
         id="stop29822" /></linearGradient><linearGradient
       inkscape:collect="always"
       id="linearGradient21404"><stop
         style="stop-color:#60575c;stop-opacity:1;"
         offset="0"
         id="stop21400" /><stop
         style="stop-color:#21161c;stop-opacity:1;"
         offset="1"
         id="stop21402" /></linearGradient><linearGradient
       inkscape:collect="always"
       id="linearGradient4211"><stop
         style="stop-color:#150909;stop-opacity:1;"
         offset="0"
         id="stop4207" /><stop
         style="stop-color:#3b2929;stop-opacity:1;"
         offset="1"
         id="stop4209" /></linearGradient><linearGradient
       inkscape:collect="always"
       xlink:href="#linearGradient4211"
       id="linearGradient4215"
       x1="21.166666"
       y1="4.2333331"
       x2="21.166666"
       y2="8.9958334"
       gradientUnits="userSpaceOnUse"
       gradientTransform="matrix(1.1182364,0,0,1.2489403,-1.6606697,-2.1121803)" /><linearGradient
       inkscape:collect="always"
       xlink:href="#linearGradient21404"
       id="linearGradient21406"
       x1="19.049999"
       y1="4.2333331"
       x2="19.049999"
       y2="7.9375"
       gradientUnits="userSpaceOnUse"
       gradientTransform="matrix(1.1182364,0,0,1.2489403,-1.1834669,-1.9826926)" /><radialGradient
       inkscape:collect="always"
       xlink:href="#linearGradient29824"
       id="radialGradient29826"
       cx="25.929167"
       cy="5.643764"
       fx="25.929167"
       fy="5.643764"
       r="3.3823702"
       gradientTransform="matrix(1.1182364,0,0,0.73646815,-1.1834669,1.1307279)"
       gradientUnits="userSpaceOnUse" /></defs><g
     inkscape:label="Layer 1"
     inkscape:groupmode="layer"
     id="layer1"
     style="display:inline"><path
       style="display:inline;fill:#1a1116;fill-opacity:1;stroke:#1a1116;stroke-width:0.264583px;stroke-linecap:butt;stroke-linejoin:miter;stroke-opacity:1"
       d="m 18.935469,9.2525658 v 2.6435902 h -2.366933 c 0,0 -0.591734,0 0,0.660898 h 10.651201 c 1.775201,10e-7 2.958668,-1.982692 2.366933,-1.982692 -0.591732,0 -0.591732,1.321794 -2.366933,1.321794 H 26.036271 V 9.2525658 H 25.444536 V 11.896156 H 19.527203 V 9.2525658 Z"
       id="path658"
       sodipodi:nodetypes="cccccccccccccc" /><path
       style="fill:url(#linearGradient21406);fill-opacity:1;stroke:none;stroke-width:0.264583px;stroke-linecap:butt;stroke-linejoin:miter;stroke-opacity:1"
       d="m 19.527203,0.66089755 v 0 c -0.591734,0 -0.591734,0 -0.591734,1.32179515 h -2.958667 c 0,0 -2.958667,3.3044879 -10.6512011,3.3044879 L 1.1834668,0.66089755 H -5.861111e-8 L 2.3669337,5.2871806 v 1.321795 C 19.527203,12.557055 32.545338,8.5916684 32.545338,8.5916684 c 0.591733,-0.6608977 0,-1.3217952 0,-1.3217952 C 26.628004,1.9826927 21.894135,1.9826927 21.894135,1.9826927 c 2e-6,-1.32179515 2e-6,-1.32179515 -1.183466,-1.32179515 V 7.2936707e-8 h -1.183466 z"
       id="path558"
       sodipodi:nodetypes="cccccccccccccccc" /><rect
       style="fill:url(#linearGradient4215);fill-opacity:1;stroke:none;stroke-width:0.264583;stroke-linecap:square;stroke-dasharray:none;stroke-dashoffset:19.9999"
       id="rect712"
       width="5.9173331"
       height="5.9480786"
       x="19.049999"
       y="3.175" /><path
       style="display:inline;fill:url(#radialGradient29826);fill-opacity:1;stroke:none;stroke-width:0.264583px;stroke-linecap:butt;stroke-linejoin:miter;stroke-opacity:1"
       d="m 25.444536,7.2698732 c 2.366935,0.6608975 7.100802,0 7.100802,0 C 31.216815,6.089978 28.155607,3.6524399 25.444537,2.803273 Z"
       id="path21396"
       sodipodi:nodetypes="cccc" /></g></svg>
