[gd_scene load_steps=4 format=3 uid="uid://d2swgph8iawof"]

[ext_resource type="Texture2D" uid="uid://o0niif1wkmk6" path="res://objects/cannon/snoot.svg" id="1_3q7h7"]
[ext_resource type="Script" path="res://objects/cannon/cannon.gd" id="1_wa53l"]
[ext_resource type="Texture2D" uid="uid://blfffba2bt8hw" path="res://objects/cannon/base.svg" id="2_0q4cj"]

[node name="Cannon" type="Node2D"]

[node name="SnootPivot" type="Node2D" parent="."]
position = Vector2(0, -24)
script = ExtResource("1_wa53l")

[node name="Snoot" type="Sprite2D" parent="SnootPivot"]
scale = Vector2(0.75, 0.75)
texture = ExtResource("1_3q7h7")

[node name="Shooter" type="Node2D" parent="SnootPivot/Snoot"]
position = Vector2(0, -32)

[node name="Base" type="Sprite2D" parent="."]
position = Vector2(0, -24)
scale = Vector2(0.75, 0.75)
texture = ExtResource("2_0q4cj")
